model,pIHP,pIHD,fA,rhoIHP,rhoRHC,aexop,rhoIHD,rhoRHD,fS
Model E0,0,0,0,0.004950495,0.001369863,1,0.01447979,0.00422746,0.014179292
Model E1,0.011434522,0.022869044,0,0.004950495,0.001369863,1,0.014480018,0.004229317,0.014177537
